waves2.vcd
$date
  Thu Jun 26 06:00:38 2025
$end
$version
  GHDL v0
$end
$timescale
  1 fs
$end
$scope module standard $end
$upscope $end
$scope module textio $end
$upscope $end
$scope module std_logic_1164 $end
$upscope $end
$scope module numeric_std $end
$upscope $end
$scope module std_logic_textio $end
$upscope $end
$scope module mmu_tb $end
$var reg 32 ! lab[31:0] $end
$var reg 1 " rw $end
$var reg 1 # cs $end
$var reg 1 $ clk $end
$var reg 32 % db[31:0] $end
$var reg 42 & pab[41:0] $end
$var reg 1 ' segfault $end
$var reg 1 ( protfault $end
$var reg 32 ) db_hold[31:0] $end
$scope module uut $end
$var reg 32 * lab[31:0] $end
$var reg 1 + rw $end
$var reg 1 , cs $end
$var reg 1 - clk $end
$var reg 32 . db[31:0] $end
$var reg 42 / pab[41:0] $end
$var reg 1 0 segfault $end
$var reg 1 1 protfault $end
$comment mmu_seg_one is not handled $end
$comment mmu_seg_two is not handled $end
$comment mmu_seg_three is not handled $end
$comment mmu_seg_four is not handled $end
$var reg 32 2 lab_segment_one[31:0] $end
$var reg 32 3 lab_segment_two[31:0] $end
$var reg 32 4 lab_segment_three[31:0] $end
$var reg 32 5 lab_segment_four[31:0] $end
$var reg 32 6 lab_index_one[31:0] $end
$var reg 32 7 lab_index_two[31:0] $end
$var reg 32 8 lab_index_three[31:0] $end
$var reg 32 9 lab_index_four[31:0] $end
$var reg 32 : db_hold[31:0] $end
$upscope $end
$upscope $end
$enddefinitions $end
#0
bUUUUUUUUUUUUUUUUUUUUUUUUUUUUUUUU !
U"
U#
0$
bZZZZZZZZZZZZZZZZZZZZZZZZZZZZZZZZ %
bUUUUUUUUUUUUUUUUUUUUUUUUUUUUUUUUUUUUUUUUUU &
U'
U(
bZZZZZZZZZZZZZZZZZZZZZZZZZZZZZZZZ )
bUUUUUUUUUUUUUUUUUUUUUUUUUUUUUUUU *
U+
U,
0-
bZZZZZZZZZZZZZZZZZZZZZZZZZZZZZZZZ .
bUUUUUUUUUUUUUUUUUUUUUUUUUUUUUUUUUUUUUUUUUU /
U0
U1
bUUUUUUUUUUUUUUUUUUUUUUUUUUUUUUUU 2
bUUUUUUUUUUUUUUUUUUUUUUUUUUUUUUUU 3
bUUUUUUUUUUUUUUUUUUUUUUUUUUUUUUUU 4
bUUUUUUUUUUUUUUUUUUUUUUUUUUUUUUUU 5
bUUUUUUUUUUUUUUUUUUUUUUUUUUUUUUUU 6
bUUUUUUUUUUUUUUUUUUUUUUUUUUUUUUUU 7
bUUUUUUUUUUUUUUUUUUUUUUUUUUUUUUUU 8
bUUUUUUUUUUUUUUUUUUUUUUUUUUUUUUUU 9
bUUUUUUUUUUUUUUUUUUUUUUUUUUUUUUUU :
#5000000
1$
b000000000000000000000000000000000000000000 &
1-
b000000000000000000000000000000000000000000 /
#10000000
b00000000000000000000000000000000 !
0"
0#
0$
b10000000000000000000000000000000 %
b10000000000000000000000000000000 )
b00000000000000000000000000000000 *
0+
0,
0-
b10000000000000000000000000000000 .
b00000000000000000000000000000000 2
b00000000000000000000000000000000 3
b00000000000000000000000000000000 4
b00000000000000000000000000000000 5
b00000000000000000000000000000000 6
b00000000000000000000000000000000 7
b00000000000000000000000000000000 8
b00000000000000000000000000000000 9
#15000000
1$
1-
#20000000
b00000000000000000000000000000100 !
0$
b00000000010000000000000000000000 %
b00000000010000000000000000000000 )
b00000000000000000000000000000100 *
0-
b00000000010000000000000000000000 .
b00000000000000000000000000000U00 2
b00000000000000000000000000000U00 3
b00000000000000000000000000000U00 4
b00000000000000000000000000000U00 5
b00000000000000000000000000000U00 6
b00000000000000000000000000000U00 7
b00000000000000000000000000000U00 8
b00000000000000000000000000000U00 9
#25000000
1$
1-
#30000000
b00000000000000000000000000001000 !
0$
b11111111111111111111000000000000 %
b11111111111111111111000000000000 )
b00000000000000000000000000001000 *
0-
b11111111111111111111000000000000 .
b0000000000000000000000000000U000 2
b0000000000000000000000000000U000 3
b0000000000000000000000000000U000 4
b0000000000000000000000000000U000 5
b0000000000000000000000000000U000 6
b0000000000000000000000000000U000 7
b0000000000000000000000000000U000 8
b0000000000000000000000000000U000 9
#35000000
1$
1-
b00000000000000000000000000000000 2
b00000000000000000000000000001000 6
#40000000
b00000000000000000000000000001100 !
0$
b00101000000000000001001000110100 %
b00101000000000000001001000110100 )
b00000000000000000000000000001100 *
0-
b00101000000000000001001000110100 .
b0000000000000000000000000000UU00 3
b0000000000000000000000000000UU00 4
b0000000000000000000000000000UU00 5
b00000000000000000000000000001100 6
b0000000000000000000000000000UU00 7
b0000000000000000000000000000UU00 8
b0000000000000000000000000000UU00 9
#45000000
1$
1-
#50000000
b00000000000000000000000000010000 !
0$
b10000000000000000000000000000000 %
b10000000000000000000000000000000 )
b00000000000000000000000000010000 *
0-
b10000000000000000000000000000000 .
b000000000000000000000000000U0000 3
b000000000000000000000000000U0000 4
b000000000000000000000000000U0000 5
b00000000000000000000000000010000 6
b000000000000000000000000000U0000 7
b000000000000000000000000000U0000 8
b000000000000000000000000000U0000 9
#55000000
1$
1-
#60000000
b00000000000000000000000000010100 !
0$
b00000000000000000000000000000000 %
b00000000000000000000000000000000 )
b00000000000000000000000000010100 *
0-
b00000000000000000000000000000000 .
b000000000000000000000000000U0U00 3
b000000000000000000000000000U0U00 4
b000000000000000000000000000U0U00 5
b00000000000000000000000000010100 6
b000000000000000000000000000U0U00 7
b000000000000000000000000000U0U00 8
b000000000000000000000000000U0U00 9
#65000000
1$
1-
#70000000
b00000000000000000000000000011000 !
0$
b11111111111111111111100000000000 %
b11111111111111111111100000000000 )
b00000000000000000000000000011000 *
0-
b11111111111111111111100000000000 .
b000000000000000000000000000UU000 3
b000000000000000000000000000UU000 4
b000000000000000000000000000UU000 5
b00000000000000000000000000011000 6
b000000000000000000000000000UU000 7
b000000000000000000000000000UU000 8
b000000000000000000000000000UU000 9
#75000000
1$
1-
b00000000000000000000000000000000 3
b00000000000000000000000000011000 7
#80000000
b00000000000000000000000000011100 !
0$
b00001000000000000001001000110100 %
b00001000000000000001001000110100 )
b00000000000000000000000000011100 *
0-
b00001000000000000001001000110100 .
b000000000000000000000000000UUU00 4
b000000000000000000000000000UUU00 5
b00000000000000000000000000011100 6
b00000000000000000000000000011100 7
b000000000000000000000000000UUU00 8
b000000000000000000000000000UUU00 9
#85000000
1$
1-
#90000000
b00000000000000000000000000100000 !
0$
b10000000000000000000000000000000 %
b10000000000000000000000000000000 )
b00000000000000000000000000100000 *
0-
b10000000000000000000000000000000 .
b00000000000000000000000000U00000 4
b00000000000000000000000000U00000 5
b00000000000000000000000000100000 6
b00000000000000000000000000100000 7
b00000000000000000000000000U00000 8
b00000000000000000000000000U00000 9
#95000000
1$
1-
#100000000
b00000000000000000000000000100100 !
0$
b00000000010000000000000000000000 %
b00000000010000000000000000000000 )
b00000000000000000000000000100100 *
0-
b00000000010000000000000000000000 .
b00000000000000000000000000U00U00 4
b00000000000000000000000000U00U00 5
b00000000000000000000000000100100 6
b00000000000000000000000000100100 7
b00000000000000000000000000U00U00 8
b00000000000000000000000000U00U00 9
#105000000
1$
1-
#110000000
b00000000000000000000000000101000 !
0$
b11111111111111111111100000000000 %
b11111111111111111111100000000000 )
b00000000000000000000000000101000 *
0-
b11111111111111111111100000000000 .
b00000000000000000000000000U0U000 4
b00000000000000000000000000U0U000 5
b00000000000000000000000000101000 6
b00000000000000000000000000101000 7
b00000000000000000000000000U0U000 8
b00000000000000000000000000U0U000 9
#115000000
1$
1-
b00000000000000000000000000000000 4
b00000000000000000000000000101000 8
#120000000
b00000000000000000000000000101100 !
0$
b00101000000000000001001000110100 %
b00101000000000000001001000110100 )
b00000000000000000000000000101100 *
0-
b00101000000000000001001000110100 .
b00000000000000000000000000U0UU00 5
b00000000000000000000000000101100 6
b00000000000000000000000000101100 7
b00000000000000000000000000101100 8
b00000000000000000000000000U0UU00 9
#125000000
1$
1-
#130000000
b00000000000000000000000000110000 !
0$
b00000000000000010000000000000000 %
b00000000000000010000000000000000 )
b00000000000000000000000000110000 *
0-
b00000000000000010000000000000000 .
b00000000000000000000000000UU0000 5
b00000000000000000000000000110000 6
b00000000000000000000000000110000 7
b00000000000000000000000000110000 8
b00000000000000000000000000UU0000 9
#135000000
1$
1-
#140000000
b00000000000000000000000000110100 !
0$
b00010000000000010000000000000000 %
b00010000000000010000000000000000 )
b00000000000000000000000000110100 *
0-
b00010000000000010000000000000000 .
b00000000000000000000000000UU0U00 5
b00000000000000000000000000110100 6
b00000000000000000000000000110100 7
b00000000000000000000000000110100 8
b00000000000000000000000000UU0U00 9
#145000000
1$
1-
#150000000
b00000000000000000000000000111000 !
0$
b11111111111111110000000000000000 %
b11111111111111110000000000000000 )
b00000000000000000000000000111000 *
0-
b11111111111111110000000000000000 .
b00000000000000000000000000UUU000 5
b00000000000000000000000000111000 6
b00000000000000000000000000111000 7
b00000000000000000000000000111000 8
b00000000000000000000000000UUU000 9
#155000000
1$
1-
b00000000000000000000000000000000 5
b00000000000000000000000000111000 9
#160000000
b00000000000000000000000000111100 !
0$
b00011000000000000001001000110100 %
b00011000000000000001001000110100 )
b00000000000000000000000000111100 *
0-
b00011000000000000001001000110100 .
b00000000000000000000000000111100 6
b00000000000000000000000000111100 7
b00000000000000000000000000111100 8
b00000000000000000000000000111100 9
#165000000
1$
1-
#170000000
b00000000000000000000000000000000 !
1"
0$
bUUUUUUUUUUUUUUUUUUUUUUUUUUUUUUUU %
bZZZZZZZZZZZZZZZZZZZZZZZZZZZZZZZZ )
b00000000000000000000000000000000 *
1+
0-
bUUUUUUUUUUUUUUUUUUUUUUUUUUUUUUUU .
b00000000000000000000000000000000 6
b00000000000000000000000000000000 7
b00000000000000000000000000000000 8
b00000000000000000000000000000000 9
#175000000
1$
b10000000000000000000000000000000 %
1-
b10000000000000000000000000000000 .
b10000000000000000000000000000000 :
#180000000
b00000000000000000000000000000100 !
0$
b00000000000000000000000000000100 *
0-
b00000000000000000000000000000100 6
b00000000000000000000000000000100 7
b00000000000000000000000000000100 8
b00000000000000000000000000000100 9
#185000000
1$
b00000000010000000000000000000000 %
1-
b00000000010000000000000000000000 .
b00000000010000000000000000000000 :
#190000000
b00000000000000000000000000001000 !
0$
b00000000000000000000000000001000 *
0-
b00000000000000000000000000001000 6
b00000000000000000000000000001000 7
b00000000000000000000000000001000 8
b00000000000000000000000000001000 9
#195000000
1$
b11111111111111111111000000000000 %
1-
b11111111111111111111000000000000 .
b11111111111111111111000000000000 :
#200000000
b00000000000000000000000000001100 !
0$
b00000000000000000000000000001100 *
0-
b00000000000000000000000000001100 6
b00000000000000000000000000001100 7
b00000000000000000000000000001100 8
b00000000000000000000000000001100 9
#205000000
1$
b00101000000000000001001000110100 %
1-
b00101000000000000001001000110100 .
b00101000000000000001001000110100 :
#210000000
b00000000000000000000000000010000 !
0$
b00000000000000000000000000010000 *
0-
b00000000000000000000000000010000 6
b00000000000000000000000000010000 7
b00000000000000000000000000010000 8
b00000000000000000000000000010000 9
#215000000
1$
b10000000000000000000000000000000 %
1-
b10000000000000000000000000000000 .
b10000000000000000000000000000000 :
#220000000
b00000000000000000000000000010100 !
0$
b00000000000000000000000000010100 *
0-
b00000000000000000000000000010100 6
b00000000000000000000000000010100 7
b00000000000000000000000000010100 8
b00000000000000000000000000010100 9
#225000000
1$
b00000000000000000000000000000000 %
1-
b00000000000000000000000000000000 .
b00000000000000000000000000000000 :
#230000000
b00000000000000000000000000011000 !
0$
b00000000000000000000000000011000 *
0-
b00000000000000000000000000011000 6
b00000000000000000000000000011000 7
b00000000000000000000000000011000 8
b00000000000000000000000000011000 9
#235000000
1$
b11111111111111111111100000000000 %
1-
b11111111111111111111100000000000 .
b11111111111111111111100000000000 :
#240000000
b00000000000000000000000000011100 !
0$
b00000000000000000000000000011100 *
0-
b00000000000000000000000000011100 6
b00000000000000000000000000011100 7
b00000000000000000000000000011100 8
b00000000000000000000000000011100 9
#245000000
1$
b00001000000000000001001000110100 %
1-
b00001000000000000001001000110100 .
b00001000000000000001001000110100 :
#250000000
b00000000000000000000000000100000 !
0$
b00000000000000000000000000100000 *
0-
b00000000000000000000000000100000 6
b00000000000000000000000000100000 7
b00000000000000000000000000100000 8
b00000000000000000000000000100000 9
#255000000
1$
b10000000000000000000000000000000 %
1-
b10000000000000000000000000000000 .
b10000000000000000000000000000000 :
#260000000
b00000000000000000000000000100100 !
0$
b00000000000000000000000000100100 *
0-
b00000000000000000000000000100100 6
b00000000000000000000000000100100 7
b00000000000000000000000000100100 8
b00000000000000000000000000100100 9
#265000000
1$
b00000000010000000000000000000000 %
1-
b00000000010000000000000000000000 .
b00000000010000000000000000000000 :
#270000000
b00000000000000000000000000101000 !
0$
b00000000000000000000000000101000 *
0-
b00000000000000000000000000101000 6
b00000000000000000000000000101000 7
b00000000000000000000000000101000 8
b00000000000000000000000000101000 9
#275000000
1$
b11111111111111111111100000000000 %
1-
b11111111111111111111100000000000 .
b11111111111111111111100000000000 :
#280000000
b00000000000000000000000000101100 !
0$
b00000000000000000000000000101100 *
0-
b00000000000000000000000000101100 6
b00000000000000000000000000101100 7
b00000000000000000000000000101100 8
b00000000000000000000000000101100 9
#285000000
1$
b00101000000000000001001000110100 %
1-
b00101000000000000001001000110100 .
b00101000000000000001001000110100 :
#290000000
b00000000000000000000000000110000 !
0$
b00000000000000000000000000110000 *
0-
b00000000000000000000000000110000 6
b00000000000000000000000000110000 7
b00000000000000000000000000110000 8
b00000000000000000000000000110000 9
#295000000
1$
b00000000000000010000000000000000 %
1-
b00000000000000010000000000000000 .
b00000000000000010000000000000000 :
#300000000
b00000000000000000000000000110100 !
0$
b00000000000000000000000000110100 *
0-
b00000000000000000000000000110100 6
b00000000000000000000000000110100 7
b00000000000000000000000000110100 8
b00000000000000000000000000110100 9
#305000000
1$
b00010000000000010000000000000000 %
1-
b00010000000000010000000000000000 .
b00010000000000010000000000000000 :
#310000000
b00000000000000000000000000111000 !
0$
b00000000000000000000000000111000 *
0-
b00000000000000000000000000111000 6
b00000000000000000000000000111000 7
b00000000000000000000000000111000 8
b00000000000000000000000000111000 9
#315000000
1$
b11111111111111110000000000000000 %
1-
b11111111111111110000000000000000 .
b11111111111111110000000000000000 :
#320000000
b00000000000000000000000000111100 !
0$
b00000000000000000000000000111100 *
0-
b00000000000000000000000000111100 6
b00000000000000000000000000111100 7
b00000000000000000000000000111100 8
b00000000000000000000000000111100 9
#325000000
1$
b00011000000000000001001000110100 %
1-
b00011000000000000001001000110100 .
b00011000000000000001001000110100 :
#330000000
b00000000010000000000000000000100 !
1#
0$
bZZZZZZZZZZZZZZZZZZZZZZZZZZZZZZZZ %
b00000000010000000000000000000100 *
1,
0-
bZZZZZZZZZZZZZZZZZZZZZZZZZZZZZZZZ .
b00000000010000000000000000000000 2
b00000000010000000000000000000000 3
b00000000010000000000000000000000 4
b00000000010000000000000000000000 5
b00000000000000000000000000000100 6
b00000000000000000000000000000100 7
b00000000000000000000000000000100 8
b00000000000000000000000000000100 9
#335000000
1$
b100000000000000000000000000000000000000100 &
1'
1(
1-
b100000000000000000000000000000000000000100 /
10
11
#340000000
0$
0-
#345000000
1$
1-
#350000000
b00000000000000000000000000000011 !
0$
b00000000000000000000000000000011 *
0-
b00000000000000000000000000000000 2
b00000000000000000000000000000000 3
b00000000000000000000000000000000 4
b00000000000000000000000000000000 5
b00000000000000000000000000000011 6
b00000000000000000000000000000011 7
b00000000000000000000000000000011 8
b00000000000000000000000000000011 9
#355000000
1$
b100000000000000000000000000000000000000011 &
1-
b100000000000000000000000000000000000000011 /
#360000000
0$
0-
#365000000
1$
1-
#370000000
b00000000010000000000000000001001 !
0$
b00000000010000000000000000001001 *
0-
b00000000010000000000000000000000 2
b00000000010000000000000000000000 3
b00000000010000000000000000000000 4
b00000000010000000000000000000000 5
b00000000000000000000000000001001 6
b00000000000000000000000000001001 7
b00000000000000000000000000001001 8
b00000000000000000000000000001001 9
#375000000
1$
b100000000000000000000000000000000000001001 &
1-
b100000000000000000000000000000000000001001 /
#380000000
0$
0-
#385000000
1$
1-
#390000000
b00010000000000010000000000001010 !
0$
b00010000000000010000000000001010 *
0-
b00010000000000010000000000000000 2
b00010000000000010000000000000000 3
b00010000000000010000000000000000 4
b00010000000000010000000000000000 5
b00000000000000000000000000001010 6
b00000000000000000000000000001010 7
b00000000000000000000000000001010 8
b00000000000000000000000000001010 9
#395000000
1$
b000000000000000100000000000000000000001010 &
1-
b000000000000000100000000000000000000001010 /
#400000000
0$
0-
#405000000
1$
1-
#410000000
b00010010001101000101011001111000 !
0$
b00010010001101000101011001111000 *
0-
b00010010001101000101000000000000 2
b00010010001101000101000000000000 3
b00010010001101000101000000000000 4
b00010010001101000000000000000000 5
b00000000000000000000011001111000 6
b00000000000000000000011001111000 7
b00000000000000000000011001111000 8
b00000000000000000101011001111000 9
#415000000
1$
b000000000000000000000000000000000000000000 &
0'
1-
b000000000000000000000000000000000000000000 /
00
#420000000
b00000000010000000000100000000000 !
0"
0$
b00000000010000000000100000000000 *
0+
0-
b00000000010000000000000000000000 2
b00000000010000000000100000000000 3
b00000000010000000000100000000000 4
b00000000010000000000000000000000 5
b00000000000000000000100000000000 6
b00000000000000000000000000000000 7
b00000000000000000000000000000000 8
b00000000000000000000100000000000 9
#425000000
1$
1'
0(
1-
10
01
