waves2.vcd
$date
  Wed Jun 25 15:03:56 2025
$end
$version
  GHDL v0
$end
$timescale
  1 fs
$end
$scope module standard $end
$upscope $end
$scope module std_logic_1164 $end
$upscope $end
$scope module numeric_std $end
$upscope $end
$scope module mmu_tb $end
$var reg 1 ! reset $end
$var reg 32 " lab[31:0] $end
$var reg 1 # rw $end
$var reg 1 $ cs $end
$var reg 1 % clk $end
$var reg 32 & db[31:0] $end
$var reg 42 ' pab[41:0] $end
$var reg 1 ( segfault $end
$var reg 1 ) protfault $end
$var reg 32 * db_hold[31:0] $end
$scope module uut $end
$var reg 1 + reset $end
$var reg 32 , lab[31:0] $end
$var reg 1 - rw $end
$var reg 1 . cs $end
$var reg 1 / clk $end
$var reg 32 0 db[31:0] $end
$var reg 42 1 pab[41:0] $end
$var reg 1 2 segfault $end
$var reg 1 3 protfault $end
$comment mmu_seg_one is not handled $end
$comment mmu_seg_two is not handled $end
$comment mmu_seg_three is not handled $end
$comment mmu_seg_four is not handled $end
$var reg 32 4 lab_segment[31:0] $end
$var reg 32 5 lab_index[31:0] $end
$var reg 1 6 wp_seg_reg $end
$var reg 1 7 d_seg_reg $end
$var integer 32 8 mmu_index $end
$var reg 32 9 db_hold[31:0] $end
$var reg 32 : writepls[31:0] $end
$upscope $end
$upscope $end
$enddefinitions $end
#0
0!
bUUUUUUUUUUUUUUUUUUUUUUUUUUUUUUUU "
1#
1$
0%
bZZZZZZZZZZZZZZZZZZZZZZZZZZZZZZZZ &
bUUUUUUUUUUUUUUUUUUUUUUUUUUUUUUUUUUUUUUUUUU '
U(
U)
bZZZZZZZZZZZZZZZZZZZZZZZZZZZZZZZZ *
0+
bUUUUUUUUUUUUUUUUUUUUUUUUUUUUUUUU ,
1-
1.
0/
bZZZZZZZZZZZZZZZZZZZZZZZZZZZZZZZZ 0
bUUUUUUUUUUUUUUUUUUUUUUUUUUUUUUUUUUUUUUUUUU 1
U2
U3
bUUUUUUUUUUUUUUUUUUUUUUUUUUUUUUUU 4
bUUUUUUUUUUUUUUUUUUUUUUUUUUUUUUUU 5
U6
U7
b10000000000000000000000000000000 8
bUUUUUUUUUUUUUUUUUUUUUUUUUUUUUUUU 9
bUUUUUUUUUUUUUUUUUUUUUUUUUUUUUUUU :
#5000000
1%
b000000000000000000000000000000000000000000 '
0(
1)
1/
b000000000000000000000000000000000000000000 1
02
13
bUUUUUUUUUUUUUUUUUUUUUU0000000000 4
b0000000000000000000000UUUUUUUUUU 5
17
#10000000
b00000000000000000000000000000000 "
0#
0$
0%
b10000000000000000000000000000000 &
b10000000000000000000000000000000 *
b00000000000000000000000000000000 ,
0-
0.
0/
b10000000000000000000000000000000 0
#15000000
1%
1/
#20000000
b00000000000000000000000000000100 "
0%
b00000000010000000000000000000000 &
b00000000010000000000000000000000 *
b00000000000000000000000000000100 ,
0/
b00000000010000000000000000000000 0
#25000000
1%
1/
#30000000
b00000000000000000000000000001000 "
0%
b11111111111111111111000000000000 &
b11111111111111111111000000000000 *
b00000000000000000000000000001000 ,
0/
b11111111111111111111000000000000 0
#35000000
1%
1/
#40000000
b00000000000000000000000000000000 "
1#
0%
bUUUUUUUUUUUUUUUUUUUUUUUUUUUUUUUU &
bZZZZZZZZZZZZZZZZZZZZZZZZZZZZZZZZ *
b00000000000000000000000000000000 ,
1-
0/
bUUUUUUUUUUUUUUUUUUUUUUUUUUUUUUUU 0
#45000000
1%
b10000000000000000000000000000000 &
1/
b10000000000000000000000000000000 0
b10000000000000000000000000000000 9
#50000000
b00000000000000000000000000000100 "
0%
b00000000000000000000000000000100 ,
0/
#55000000
1%
b00000000010000000000000000000000 &
1/
b00000000010000000000000000000000 0
b00000000010000000000000000000000 9
